300.03;302.405;312.902;328.664;340.151;343.131;341.957;339.59;337.018;334.521;332.167;329.966;327.914;326.002;324.221;322.562;321.016;319.577;318.236;316.986;315.823;314.739;313.729;312.789;311.913;311.097;310.337;309.628;308.969;308.354;307.782;307.645;300.048;302.173;308.463;315.373;321.136;325.673;329.201;331.937;334.059;335.702;336.977;337.964;338.729;339.323;339.782;340.139;340.415;340.629;340.795;340.923;341.023;341.1;341.16;341.206;341.242;
300.045;303.089;315.521;333.194;345.075;347.365;345.438;342.436;339.329;336.37;333.613;331.06;328.699;326.517;324.501;322.638;320.917;319.326;317.857;316.499;315.245;314.086;313.015;312.025;311.111;310.266;309.486;308.764;308.098;307.482;306.913;306.778;300.071;302.741;309.952;317.376;323.307;327.812;331.199;333.741;335.647;337.077;338.15;338.954;339.557;340.009;340.349;340.603;340.794;340.937;341.044;341.125;341.185;341.23;341.264;341.29;341.309;
300.063;303.77;317.98;337.305;349.399;350.998;348.364;344.771;341.167;337.784;334.66;331.79;329.157;326.742;324.526;322.494;320.631;318.922;317.354;315.916;314.598;313.388;312.279;311.262;310.329;309.473;308.688;307.968;307.308;306.703;306.148;306.016;300.097;303.293;311.304;319.117;325.127;329.546;332.768;335.112;336.817;338.057;338.959;339.615;340.093;340.44;340.692;340.876;341.01;341.107;341.177;341.229;341.266;341.293;341.313;341.328;341.338;
300.006;300.969;306.768;317.567;327.889;332.907;333.947;333.237;331.882;330.334;328.765;327.24;325.782;324.396;323.083;321.84;320.663;319.549;318.496;317.499;316.556;315.663;314.819;314.021;313.265;312.55;311.874;311.234;310.628;310.055;309.513;309.383;300.01;300.957;304.961;310.559;315.907;320.486;324.283;327.401;329.952;332.038;333.742;335.136;336.274;337.205;337.966;338.587;339.095;339.51;339.849;340.126;340.353;340.538;340.689;340.813;340.914;
300.012;301.418;308.928;321.818;333.039;337.615;337.919;336.559;334.675;332.686;330.74;328.885;327.132;325.482;323.931;322.475;321.106;319.822;318.615;317.482;316.417;315.418;314.479;313.598;312.77;311.992;311.262;310.577;309.933;309.328;308.76;308.624;300.02;301.365;306.345;312.685;318.394;323.085;326.845;329.837;332.214;334.101;335.599;336.789;337.733;338.482;339.077;339.549;339.924;340.221;340.457;340.645;340.793;340.912;341.005;341.08;341.139;
300.019;301.916;311.114;325.892;337.743;341.771;341.352;339.381;337.001;334.598;332.296;330.129;328.101;326.207;324.441;322.793;321.256;319.823;318.486;317.24;316.077;314.993;313.982;313.04;312.16;311.34;310.576;309.863;309.198;308.578;307.999;307.861;300.032;301.804;307.688;314.623;320.569;325.281;328.944;331.776;333.963;335.652;336.955;337.961;338.738;339.337;339.8;340.157;340.433;340.646;340.81;340.937;341.035;341.11;341.169;341.214;341.248;
300.001;300.365;303.364;310.298;318.601;324.362;327.023;327.771;327.529;326.807;325.866;324.839;323.794;322.763;321.762;320.797;319.87;318.983;318.135;317.324;316.549;315.808;315.101;314.425;313.779;313.162;312.573;312.011;311.473;310.96;310.469;310.35;300.002;300.401;302.811;307.106;311.845;316.27;320.155;323.483;326.305;328.688;330.696;332.386;333.809;335.007;336.014;336.863;337.576;338.177;338.682;339.108;339.466;339.767;340.02;340.234;340.413;
300.003;300.617;304.921;313.855;323.503;329.293;331.398;331.516;330.716;329.526;328.195;326.838;325.505;324.219;322.99;321.819;320.705;319.648;318.644;317.691;316.787;315.929;315.115;314.342;313.609;312.913;312.253;311.627;311.032;310.469;309.933;309.804;300.005;300.656;303.953;309.15;314.448;319.138;323.094;326.373;329.071;331.287;333.104;334.594;335.815;336.816;337.637;338.309;338.86;339.312;339.683;339.986;340.235;340.439;340.606;340.743;340.856;
300.006;300.933;306.637;317.492;328.203;333.787;335.256;334.745;333.415;331.79;330.096;328.429;326.826;325.302;323.859;322.496;321.21;319.997;318.853;317.774;316.757;315.799;314.895;314.043;313.239;312.482;311.768;311.094;310.46;309.861;309.297;309.161;300.01;300.964;305.149;311.113;316.813;321.642;325.578;328.744;331.279;333.307;334.927;336.222;337.256;338.083;338.743;339.27;339.692;340.028;340.297;340.512;340.684;340.821;340.931;341.018;341.088;
300;300.127;301.571;305.737;311.828;317.277;320.772;322.604;323.344;323.42;323.106;322.571;321.915;321.2;320.462;319.721;318.989;318.275;317.582;316.911;316.264;315.64;315.039;314.461;313.905;313.37;312.855;312.36;311.884;311.427;310.987;310.88;300;300.163;301.562;304.729;308.771;312.897;316.734;320.157;323.149;325.738;327.969;329.885;331.529;332.938;334.145;335.18;336.067;336.826;337.477;338.034;338.512;338.921;339.271;339.572;339.829;
300.001;300.252;302.579;308.444;316.094;322.076;325.358;326.71;326.929;326.526;325.795;324.901;323.938;322.956;321.983;321.034;320.116;319.232;318.385;317.573;316.796;316.052;315.341;314.662;314.012;313.392;312.798;312.231;311.689;311.172;310.677;310.556;300.001;300.309;302.436;306.566;311.334;315.884;319.914;323.372;326.299;328.76;330.823;332.55;333.994;335.203;336.213;337.057;337.764;338.354;338.848;339.261;339.606;339.894;340.136;340.337;340.506;
300.001;300.43;303.801;311.424;320.437;326.654;329.534;330.327;330.011;329.143;328.019;326.794;325.547;324.319;323.129;321.987;320.896;319.855;318.866;317.924;317.029;316.179;315.371;314.603;313.874;313.181;312.522;311.897;311.302;310.738;310.201;310.071;300.003;300.509;303.43;308.435;313.764;318.579;322.675;326.077;328.874;331.165;333.037;334.567;335.816;336.835;337.667;338.347;338.901;339.354;339.724;340.025;340.272;340.473;340.637;340.771;340.88;
300;300.04;300.681;303.017;307.15;311.704;315.346;317.792;319.253;320.006;320.277;320.229;319.972;319.584;319.113;318.595;318.051;317.498;316.943;316.395;315.857;315.33;314.818;314.321;313.838;313.371;312.919;312.482;312.059;311.65;311.255;311.159;300;300.067;300.881;303.188;306.574;310.335;314.032;317.456;320.535;323.258;325.645;327.728;329.539;331.113;332.478;333.662;334.689;335.579;336.35;337.019;337.598;338.101;338.536;338.913;339.24;
300;300.094;301.271;304.91;310.576;316.042;319.861;322.077;323.147;323.473;323.335;322.914;322.328;321.649;320.925;320.182;319.44;318.708;317.994;317.3;316.628;315.98;315.356;314.755;314.177;313.621;313.086;312.573;312.079;311.605;311.149;311.038;300;300.148;301.528;304.779;309.002;313.326;317.334;320.885;323.962;326.599;328.847;330.757;332.378;333.752;334.916;335.903;336.738;337.446;338.046;338.554;338.984;339.348;339.657;339.918;340.14;
300;300.185;302.068;307.176;314.316;320.421;324.16;325.985;326.584;326.452;325.903;325.124;324.229;323.284;322.327;321.38;320.457;319.563;318.702;317.875;317.083;316.325;315.599;314.905;314.242;313.608;313.003;312.424;311.871;311.342;310.837;310.715;300.001;300.274;302.327;306.496;311.405;316.114;320.278;323.833;326.82;329.31;331.378;333.094;334.516;335.694;336.669;337.477;338.146;338.699;339.158;339.538;339.852;340.112;340.328;340.507;340.654;
300.03;302.43;313.246;329.944;342.702;346.575;345.627;343.039;340.056;337.099;334.3;331.692;329.275;327.04;324.975;323.067;321.305;319.678;318.175;316.786;315.504;314.32;313.226;312.215;311.282;310.42;309.624;308.889;308.21;307.583;307.004;306.866;300.048;302.146;308.238;314.821;320.323;324.716;328.196;330.949;333.127;334.849;336.211;337.289;338.141;338.815;339.349;339.77;340.104;340.368;340.577;340.742;340.872;340.975;341.057;341.122;341.173;
300.045;303.12;315.915;334.591;347.757;350.864;349.052;345.736;342.154;338.695;335.469;332.496;329.767;327.266;324.974;322.874;320.951;319.19;317.577;316.099;314.746;313.506;312.371;311.331;310.378;309.506;308.707;307.975;307.304;306.69;306.128;305.995;300.071;302.708;309.701;316.798;322.494;326.892;330.268;332.857;334.842;336.363;337.53;338.425;339.111;339.637;340.04;340.35;340.587;340.769;340.908;341.015;341.097;341.16;341.208;341.245;341.273;
300.063;303.806;318.413;338.78;352.143;354.473;351.857;347.879;343.757;339.852;336.252;332.964;329.97;327.247;324.771;322.519;320.473;318.612;316.92;315.382;313.984;312.713;311.558;310.507;309.552;308.684;307.895;307.177;306.525;305.932;305.393;305.266;300.097;303.256;311.035;318.529;324.333;328.679;331.918;334.331;336.127;337.465;338.461;339.203;339.755;340.167;340.473;340.701;340.871;340.997;341.091;341.162;341.214;341.253;341.282;341.303;341.319;
300.006;300.988;307.042;318.633;330.106;336.044;337.47;336.739;335.15;333.276;331.358;329.49;327.708;326.023;324.436;322.945;321.543;320.227;318.992;317.831;316.742;315.719;314.758;313.857;313.01;312.215;311.469;310.768;310.11;309.492;308.912;308.773;300.01;300.936;304.767;310.042;315.086;319.455;323.134;326.204;328.759;330.884;332.652;334.121;335.343;336.358;337.203;337.905;338.488;338.973;339.377;339.712;339.991;340.223;340.416;340.576;340.709;
300.012;301.444;309.274;323.076;335.529;340.99;341.574;340.084;337.872;335.487;333.139;330.901;328.798;326.83;324.995;323.284;321.69;320.204;318.821;317.532;316.331;315.213;314.171;313.2;312.296;311.454;310.67;309.939;309.258;308.624;308.034;307.893;300.019;301.336;306.109;312.106;317.526;322.041;325.723;328.708;331.125;333.08;334.662;335.942;336.978;337.816;338.494;339.042;339.486;339.845;340.135;340.37;340.56;340.714;340.839;340.939;341.021;
300.019;301.95;311.525;327.307;340.431;345.284;345.043;342.845;340.063;337.211;334.47;331.897;329.504;327.286;325.233;323.334;321.577;319.953;318.451;317.061;315.777;314.589;313.491;312.475;311.536;310.667;309.864;309.122;308.435;307.8;307.213;307.073;300.032;301.767;307.417;314.002;319.681;324.254;327.876;330.735;332.988;334.764;336.163;337.266;338.135;338.82;339.359;339.785;340.12;340.384;340.592;340.756;340.885;340.987;341.068;341.131;341.181;
300.001;300.378;303.576;311.166;320.475;327.118;330.243;331.102;330.76;329.83;328.634;327.337;326.024;324.735;323.49;322.298;321.161;320.079;319.051;318.075;317.149;316.27;315.436;314.644;313.893;313.181;312.505;311.864;311.256;310.679;310.131;309.999;300.002;300.385;302.641;306.614;311.018;315.186;318.903;322.138;324.926;327.316;329.361;331.11;332.604;333.881;334.971;335.903;336.699;337.379;337.96;338.456;338.88;339.243;339.552;339.816;340.042;
300.003;300.639;305.219;314.962;325.743;332.411;334.886;335.001;333.999;332.518;330.864;329.183;327.541;325.966;324.469;323.052;321.715;320.454;319.265;318.145;317.091;316.097;315.161;314.28;313.45;312.668;311.931;311.238;310.584;309.969;309.389;309.25;300.005;300.631;303.728;308.564;313.531;317.997;321.83;325.062;327.768;330.029;331.915;333.487;334.798;335.891;336.802;337.561;338.194;338.722;339.162;339.529;339.835;340.089;340.302;340.479;340.626;
300.006;300.964;307.019;318.814;330.741;337.165;338.901;338.282;336.662;334.676;332.607;330.577;328.635;326.801;325.076;323.458;321.944;320.527;319.201;317.96;316.8;315.714;314.699;313.749;312.861;312.03;311.252;310.525;309.845;309.209;308.614;308.471;300.01;300.928;304.873;310.455;315.844;320.486;324.341;327.501;330.08;332.18;333.89;335.282;336.415;337.336;338.087;338.697;339.194;339.598;339.928;340.195;340.413;340.591;340.735;340.853;340.948;
300;300.136;301.732;306.427;313.384;319.666;323.676;325.716;326.458;326.416;325.922;325.177;324.302;323.368;322.417;321.473;320.551;319.656;318.795;317.966;317.172;316.412;315.685;314.989;314.324;313.688;313.08;312.499;311.944;311.413;310.907;310.783;300;300.15;301.408;304.242;307.908;311.725;315.349;318.644;321.575;324.154;326.409;328.375;330.084;331.57;332.861;333.982;334.956;335.801;336.535;337.172;337.725;338.205;338.622;338.984;339.298;
300.001;300.269;302.828;309.399;318.078;324.922;328.638;330.083;330.195;329.58;328.593;327.428;326.196;324.956;323.739;322.562;321.432;320.353;319.324;318.346;317.416;316.533;315.694;314.897;314.141;313.423;312.742;312.095;311.481;310.898;310.345;310.211;300.001;300.286;302.212;305.95;310.336;314.613;318.483;321.869;324.787;327.282;329.408;331.215;332.75;334.053;335.16;336.099;336.896;337.572;338.146;338.634;339.047;339.398;339.696;339.949;340.163;
300.001;300.459;304.149;312.638;322.799;329.857;333.07;333.843;333.321;332.162;330.719;329.175;327.622;326.107;324.652;323.265;321.95;320.706;319.531;318.421;317.375;316.387;315.455;314.576;313.748;312.966;312.229;311.533;310.877;310.259;309.675;309.535;300.003;300.473;303.137;307.714;312.678;317.266;321.254;324.633;327.464;329.823;331.785;333.414;334.767;335.889;336.821;337.594;338.236;338.769;339.211;339.577;339.882;340.134;340.344;340.518;340.662;
300;300.046;300.797;303.549;308.417;313.751;317.949;320.686;322.235;322.947;323.098;322.888;322.449;321.872;321.213;320.512;319.793;319.072;318.361;317.664;316.986;316.329;315.694;315.081;314.491;313.924;313.377;312.852;312.347;311.862;311.396;311.282;300;300.056;300.729;302.672;305.617;309.005;312.439;315.705;318.707;321.414;323.827;325.965;327.851;329.511;330.969;332.249;333.373;334.358;335.222;335.98;336.644;337.227;337.737;338.185;338.577;
300;300.108;301.473;305.714;312.31;318.622;322.937;325.332;326.373;326.552;326.206;325.554;324.729;323.817;322.868;321.913;320.971;320.054;319.166;318.311;317.49;316.704;315.951;315.231;314.544;313.887;313.259;312.66;312.087;311.541;311.019;310.892;300;300.125;301.288;304.09;307.858;311.852;315.666;319.131;322.198;324.875;327.195;329.197;330.92;332.401;333.672;334.764;335.701;336.506;337.196;337.788;338.296;338.732;339.106;339.427;339.702;
300;300.21;302.374;308.267;316.49;323.448;327.585;329.466;329.924;329.554;328.727;327.661;326.485;325.272;324.065;322.886;321.747;320.655;319.613;318.619;317.673;316.775;315.921;315.111;314.341;313.611;312.917;312.259;311.635;311.042;310.479;310.343;300.001;300.235;301.995;305.66;310.133;314.572;318.612;322.144;325.173;327.744;329.915;331.745;333.284;334.577;335.664;336.577;337.344;337.988;338.529;338.983;339.365;339.685;339.954;340.18;340.37;
300.03;302.441;313.465;330.968;345.084;350.205;349.847;347.23;343.855;340.354;336.978;333.82;330.904;328.228;325.779;323.54;321.494;319.626;317.92;316.362;314.94;313.641;312.456;311.373;310.384;309.482;308.657;307.905;307.218;306.59;306.017;305.882;300.048;302.146;308.238;314.821;320.323;324.716;328.196;330.949;333.127;334.849;336.211;337.289;338.141;338.815;339.349;339.77;340.104;340.368;340.577;340.742;340.872;340.975;341.057;341.122;341.173;
300.045;303.133;316.17;335.718;350.273;354.562;353.206;349.73;345.66;341.599;337.768;334.238;331.015;328.088;325.433;323.027;320.849;318.876;317.09;315.473;314.009;312.683;311.483;310.396;309.413;308.522;307.715;306.985;306.324;305.726;305.184;305.057;300.071;302.708;309.701;316.798;322.494;326.892;330.268;332.857;334.842;336.363;337.53;338.425;339.111;339.637;340.04;340.35;340.587;340.769;340.908;341.015;341.097;341.16;341.208;341.245;341.273;
300.063;303.822;318.695;339.976;354.726;358.152;355.867;351.625;346.95;342.412;338.201;334.365;330.898;327.773;324.962;322.435;320.163;318.121;316.285;314.636;313.153;311.821;310.624;309.548;308.581;307.712;306.931;306.229;305.598;305.031;304.521;304.402;300.097;303.256;311.035;318.529;324.333;328.679;331.918;334.331;336.127;337.465;338.461;339.203;339.755;340.167;340.473;340.701;340.871;340.997;341.091;341.162;341.214;341.253;341.282;341.303;341.319;
300.006;300.995;307.217;319.503;332.225;339.431;341.608;341.069;339.299;337.049;334.672;332.33;330.091;327.981;326.007;324.167;322.454;320.861;319.381;318.006;316.728;315.54;314.437;313.412;312.46;311.576;310.754;309.991;309.282;308.623;308.011;307.864;300.01;300.936;304.767;310.042;315.086;319.455;323.134;326.204;328.759;330.884;332.652;334.121;335.343;336.358;337.203;337.905;338.488;338.973;339.377;339.712;339.991;340.223;340.416;340.576;340.709;
300.012;301.455;309.5;324.113;337.924;344.646;345.868;344.425;341.902;339.039;336.16;333.399;330.808;328.399;326.17;324.112;322.215;320.466;318.854;317.369;316.001;314.741;313.58;312.511;311.525;310.618;309.781;309.011;308.301;307.647;307.045;306.902;300.019;301.336;306.109;312.106;317.526;322.041;325.723;328.708;331.125;333.08;334.662;335.942;336.978;337.816;338.494;339.042;339.486;339.845;340.135;340.37;340.56;340.714;340.839;340.939;341.021;
300.019;301.965;311.796;328.482;343.027;349.098;349.373;347.092;343.893;340.489;337.17;334.049;331.157;328.497;326.058;323.826;321.783;319.916;318.208;316.646;315.219;313.914;312.72;311.63;310.632;309.72;308.887;308.125;307.428;306.791;306.208;306.071;300.032;301.767;307.417;314.002;319.681;324.254;327.876;330.735;332.988;334.764;336.163;337.266;338.135;338.82;339.359;339.785;340.12;340.384;340.592;340.756;340.885;340.987;341.068;341.131;341.181;
300.001;300.383;303.716;311.899;322.336;330.203;334.142;335.317;334.934;333.758;332.215;330.533;328.829;327.163;325.564;324.042;322.603;321.245;319.967;318.764;317.633;316.57;315.571;314.632;313.75;312.921;312.141;311.409;310.721;310.074;309.467;309.321;300.002;300.385;302.641;306.614;311.018;315.186;318.903;322.138;324.926;327.316;329.361;331.11;332.604;333.881;334.971;335.903;336.699;337.379;337.96;338.456;338.88;339.243;339.552;339.816;340.042;
300.003;300.648;305.418;315.91;327.985;335.916;339.106;339.387;338.201;336.354;334.26;332.123;330.038;328.049;326.171;324.409;322.761;321.222;319.785;318.445;317.196;316.031;314.945;313.933;312.989;312.109;311.288;310.523;309.81;309.146;308.526;308.378;300.005;300.631;303.728;308.564;313.531;317.997;321.83;325.062;327.768;330.029;331.915;333.487;334.798;335.891;336.802;337.561;338.194;338.722;339.162;339.529;339.835;340.089;340.302;340.479;340.626;
300.006;300.978;307.28;319.957;333.294;340.967;343.3;342.705;340.776;338.329;335.75;333.215;330.799;328.53;326.415;324.45;322.628;320.941;319.379;317.933;316.595;315.357;314.211;313.15;312.169;311.261;310.42;309.643;308.923;308.257;307.641;307.494;300.01;300.928;304.873;310.455;315.844;320.486;324.341;327.501;330.08;332.18;333.89;335.282;336.415;337.336;338.087;338.697;339.194;339.598;339.928;340.195;340.413;340.591;340.735;340.853;340.948;
300;300.14;301.842;307.044;315.018;322.472;327.334;329.776;330.573;330.376;329.614;328.549;327.338;326.071;324.799;323.554;322.349;321.193;320.09;319.039;318.041;317.094;316.196;315.344;314.537;313.772;313.047;312.36;311.71;311.093;310.509;310.368;300;300.15;301.408;304.242;307.908;311.725;315.349;318.644;321.575;324.154;326.409;328.375;330.084;331.57;332.861;333.982;334.956;335.801;336.535;337.172;337.725;338.205;338.622;338.984;339.298;
300.001;300.277;303.005;310.265;320.178;328.274;332.755;334.443;334.451;333.547;332.184;330.618;328.987;327.366;325.794;324.288;322.858;321.504;320.227;319.024;317.891;316.824;315.821;314.878;313.99;313.156;312.371;311.633;310.939;310.287;309.673;309.526;300.001;300.286;302.212;305.95;310.336;314.613;318.483;321.869;324.787;327.282;329.408;331.215;332.75;334.053;335.16;336.099;336.896;337.572;338.146;338.634;339.047;339.398;339.696;339.949;340.163;
300.001;300.472;304.4;313.749;325.307;333.631;337.486;338.344;337.577;336.018;334.118;332.112;330.117;328.191;326.36;324.632;323.01;321.491;320.07;318.741;317.501;316.342;315.259;314.248;313.304;312.423;311.6;310.832;310.114;309.444;308.818;308.668;300.003;300.473;303.137;307.714;312.678;317.266;321.254;324.633;327.464;329.823;331.785;333.414;334.767;335.889;336.821;337.594;338.236;338.769;339.211;339.577;339.882;340.134;340.344;340.518;340.662;
300;300.049;300.885;304.07;309.858;316.318;321.401;324.615;326.301;326.925;326.863;326.374;325.633;324.748;323.791;322.807;321.822;320.853;319.911;319;318.125;317.285;316.482;315.714;314.981;314.281;313.614;312.977;312.37;311.792;311.24;311.106;300;300.056;300.729;302.672;305.617;309.005;312.439;315.705;318.707;321.414;323.827;325.965;327.851;329.511;330.969;332.249;333.373;334.358;335.222;335.98;336.644;337.227;337.737;338.185;338.577;
300;300.114;301.629;306.509;314.286;321.849;326.978;329.68;330.677;330.613;329.931;328.907;327.709;326.437;325.151;323.883;322.653;321.471;320.341;319.265;318.243;317.273;316.353;315.481;314.655;313.874;313.133;312.432;311.769;311.141;310.546;310.402;300;300.125;301.288;304.09;307.858;311.852;315.666;319.131;322.198;324.875;327.195;329.197;330.92;332.401;333.672;334.764;335.701;336.506;337.196;337.788;338.296;338.732;339.106;339.427;339.702;
300;300.222;302.616;309.353;318.968;327.214;332.037;334.045;334.295;333.555;332.296;330.791;329.194;327.588;326.019;324.511;323.073;321.711;320.424;319.21;318.066;316.99;315.977;315.024;314.128;313.286;312.493;311.748;311.047;310.388;309.768;309.619;300.001;300.235;301.995;305.66;310.133;314.572;318.612;322.144;325.173;327.744;329.915;331.745;333.284;334.577;335.664;336.577;337.344;337.988;338.529;338.983;339.365;339.685;339.954;340.18;340.37;
300.03;302.468;313.844;332.432;348.161;354.635;354.876;352.184;348.319;344.129;340.011;336.134;332.564;329.312;326.368;323.711;321.318;319.164;317.227;315.485;313.919;312.512;311.246;310.109;309.087;308.168;307.342;306.599;305.932;305.332;304.792;304.666;300.048;302.173;308.463;315.373;321.136;325.673;329.201;331.937;334.059;335.702;336.977;337.964;338.729;339.323;339.782;340.139;340.415;340.629;340.795;340.923;341.023;341.1;341.16;341.206;341.242;
300.046;303.167;316.602;337.305;353.477;358.997;358.057;354.341;349.666;344.854;340.26;336.022;332.176;328.715;325.614;322.843;320.369;318.161;316.193;314.437;312.871;311.476;310.231;309.122;308.133;307.251;306.464;305.763;305.138;304.581;304.084;303.969;300.071;302.741;309.952;317.376;323.307;327.812;331.199;333.741;335.647;337.077;338.15;338.954;339.557;340.009;340.349;340.603;340.794;340.937;341.044;341.125;341.185;341.23;341.264;341.29;341.309;
300.063;303.861;319.169;341.641;357.971;362.494;360.462;355.853;350.501;345.188;340.226;335.715;331.668;328.061;324.856;322.014;319.495;317.263;315.287;313.536;311.986;310.614;309.398;308.322;307.369;306.525;305.778;305.116;304.53;304.012;303.552;303.446;300.097;303.293;311.304;319.117;325.127;329.546;332.768;335.112;336.817;338.057;338.959;339.615;340.093;340.44;340.692;340.876;341.01;341.107;341.177;341.229;341.266;341.293;341.313;341.328;341.338;
300.006;301.015;307.531;320.801;335.108;343.802;346.832;346.492;344.464;341.695;338.681;335.671;332.786;330.077;327.562;325.242;323.109;321.152;319.358;317.716;316.212;314.836;313.576;312.423;311.368;310.403;309.519;308.711;307.971;307.294;306.675;306.528;300.01;300.957;304.961;310.559;315.907;320.486;324.283;327.401;329.952;332.038;333.742;335.136;336.274;337.205;337.966;338.587;339.095;339.51;339.849;340.126;340.353;340.538;340.689;340.813;340.914;
300.012;301.484;309.896;325.633;341.12;349.268;351.168;349.727;346.777;343.27;339.671;336.197;332.941;329.934;327.18;324.669;322.384;320.308;318.423;316.713;315.161;313.753;312.476;311.317;310.266;309.312;308.447;307.663;306.951;306.305;305.72;305.582;300.02;301.365;306.345;312.685;318.394;323.085;326.845;329.837;332.214;334.101;335.599;336.789;337.733;338.482;339.077;339.549;339.924;340.221;340.457;340.645;340.793;340.912;341.005;341.08;341.139;
300.019;302.002;312.264;330.176;346.433;353.829;354.607;352.158;348.403;344.27;340.189;336.34;332.791;329.556;326.625;323.977;321.588;319.436;317.497;315.751;314.18;312.765;311.491;310.344;309.312;308.383;307.546;306.793;306.115;305.505;304.955;304.827;300.032;301.804;307.688;314.623;320.569;325.281;328.944;331.776;333.963;335.652;336.955;337.961;338.738;339.337;339.8;340.157;340.433;340.646;340.81;340.937;341.035;341.11;341.169;341.214;341.248;
300.001;300.399;303.98;313.065;325.043;334.458;339.376;340.891;340.382;338.803;336.72;334.446;332.15;329.919;327.794;325.795;323.925;322.182;320.563;319.059;317.664;316.371;315.171;314.06;313.03;312.075;311.19;310.37;309.61;308.906;308.253;308.097;300.002;300.401;302.811;307.106;311.845;316.27;320.155;323.483;326.305;328.688;330.696;332.386;333.809;335.007;336.014;336.863;337.576;338.177;338.682;339.108;339.466;339.767;340.02;340.234;340.413;
300.003;300.673;305.786;317.379;331.16;340.618;344.612;345.017;343.509;341.106;338.359;335.553;332.826;330.244;327.831;325.593;323.526;321.621;319.867;318.255;316.773;315.411;314.159;313.009;311.952;310.981;310.089;309.269;308.516;307.824;307.189;307.038;300.005;300.656;303.953;309.15;314.448;319.138;323.094;326.373;329.071;331.287;333.104;334.594;335.815;336.816;337.637;338.309;338.86;339.312;339.683;339.986;340.235;340.439;340.606;340.743;340.856;
300.006;301.015;307.749;321.687;336.826;345.945;348.894;348.227;345.819;342.702;339.396;336.148;333.071;330.207;327.567;325.146;322.931;320.909;319.063;317.38;315.844;314.445;313.168;312.005;310.944;309.977;309.095;308.292;307.559;306.891;306.282;306.139;300.01;300.964;305.149;311.113;316.813;321.642;325.578;328.744;331.279;333.307;334.927;336.222;337.256;338.083;338.743;339.27;339.692;340.028;340.297;340.512;340.684;340.821;340.931;341.018;341.088;
300;300.152;302.072;308.126;317.629;326.693;332.625;335.48;336.206;335.65;334.387;332.769;331.002;329.202;327.434;325.731;324.11;322.578;321.135;319.78;318.509;317.319;316.204;315.16;314.183;313.269;312.414;311.614;310.865;310.165;309.51;309.353;300;300.163;301.562;304.729;308.771;312.897;316.734;320.157;323.149;325.738;327.969;329.885;331.529;332.938;334.145;335.18;336.067;336.826;337.477;338.034;338.512;338.921;339.271;339.572;339.829;
300.001;300.299;303.358;311.728;323.409;333.126;338.481;340.328;340.037;338.599;336.61;334.403;332.158;329.967;327.875;325.902;324.054;322.33;320.725;319.233;317.847;316.56;315.366;314.257;313.229;312.274;311.389;310.567;309.805;309.097;308.441;308.284;300.001;300.309;302.436;306.566;311.334;315.884;319.914;323.372;326.299;328.76;330.823;332.55;333.994;335.203;336.213;337.057;337.764;338.354;338.848;339.261;339.606;339.894;340.136;340.337;340.506;
300.002;300.509;304.884;315.566;329.043;338.91;343.417;344.204;342.956;340.735;338.124;335.424;332.784;330.274;327.921;325.733;323.707;321.836;320.11;318.519;317.053;315.703;314.46;313.315;312.26;311.289;310.395;309.572;308.814;308.116;307.473;307.321;300.003;300.509;303.43;308.435;313.764;318.579;322.675;326.077;328.874;331.165;333.037;334.567;335.816;336.835;337.667;338.347;338.901;339.354;339.724;340.025;340.272;340.473;340.637;340.771;340.88;
300;300.058;301.101;305.137;312.503;320.662;326.883;330.535;332.143;332.392;331.815;330.768;329.474;328.066;326.627;325.202;323.818;322.489;321.221;320.016;318.876;317.797;316.779;315.818;314.911;314.056;313.249;312.489;311.772;311.097;310.46;310.307;300;300.067;300.881;303.188;306.574;310.335;314.032;317.456;320.535;323.258;325.645;327.728;329.539;331.113;332.478;333.662;334.689;335.579;336.35;337.019;337.598;338.101;338.536;338.913;339.24;
300;300.136;301.992;308.047;317.714;327.003;333.033;335.863;336.512;335.875;334.542;332.871;331.064;329.236;327.447;325.729;324.097;322.556;321.107;319.747;318.472;317.278;316.161;315.115;314.137;313.222;312.367;311.566;310.817;310.117;309.462;309.305;300;300.148;301.528;304.779;309.002;313.326;317.334;320.885;323.962;326.599;328.847;330.757;332.378;333.752;334.916;335.903;336.738;337.446;338.046;338.554;338.984;339.348;339.657;339.918;340.14;
300;300.261;303.148;311.354;323.06;332.937;338.383;340.24;339.931;338.478;336.485;334.284;332.051;329.876;327.801;325.846;324.015;322.306;320.715;319.236;317.86;316.583;315.397;314.295;313.272;312.322;311.441;310.622;309.862;309.156;308.501;308.344;300.001;300.274;302.327;306.496;311.405;316.114;320.278;323.833;326.82;329.31;331.378;333.094;334.516;335.694;336.669;337.477;338.146;338.699;339.158;339.538;339.852;340.112;340.328;340.507;340.654;
