{
    "classes": [
        {
            "centre_defect": {
                "centre": 0.35,
                "diffusivity": 1.5e-05,
                "length": 0.1
            },
            "mediumBoundaryTemp": [
                300.03,
                302.405,
                312.902,
                328.664,
                340.151,
                343.131,
                341.957,
                339.59,
                337.018,
                334.521,
                332.167,
                329.966,
                327.914,
                326.002,
                324.221,
                322.562,
                321.016,
                319.577,
                318.236,
                316.986,
                315.823,
                314.739,
                313.729,
                312.789,
                311.913,
                311.097,
                310.337,
                309.628,
                308.969,
                308.354,
                307.782,
                307.645,
                300.048,
                302.173,
                308.463,
                315.373,
                321.136,
                325.673,
                329.201,
                331.937,
                334.059,
                335.702,
                336.977,
                337.964,
                338.729,
                339.323,
                339.782,
                340.139,
                340.415,
                340.629,
                340.795,
                340.923,
                341.023,
                341.1,
                341.16,
                341.206,
                341.242
            ]
        },
        {
            "centre_defect": {
                "centre": 0.35,
                "diffusivity": 1.5e-05,
                "length": 0.15
            },
            "mediumBoundaryTemp": [
                300.006,
                300.969,
                306.768,
                317.567,
                327.889,
                332.907,
                333.947,
                333.237,
                331.882,
                330.334,
                328.765,
                327.24,
                325.782,
                324.396,
                323.083,
                321.84,
                320.663,
                319.549,
                318.496,
                317.499,
                316.556,
                315.663,
                314.819,
                314.021,
                313.265,
                312.55,
                311.874,
                311.234,
                310.628,
                310.055,
                309.513,
                309.383,
                300.01,
                300.957,
                304.961,
                310.559,
                315.907,
                320.486,
                324.283,
                327.401,
                329.952,
                332.038,
                333.742,
                335.136,
                336.274,
                337.205,
                337.966,
                338.587,
                339.095,
                339.51,
                339.849,
                340.126,
                340.353,
                340.538,
                340.689,
                340.813,
                340.914
            ]
        },
        {
            "centre_defect": {
                "centre": 0.35,
                "diffusivity": 1.5e-05,
                "length": 0.2
            },
            "mediumBoundaryTemp": [
                300.001,
                300.365,
                303.364,
                310.298,
                318.601,
                324.362,
                327.023,
                327.771,
                327.529,
                326.807,
                325.866,
                324.839,
                323.794,
                322.763,
                321.762,
                320.797,
                319.87,
                318.983,
                318.135,
                317.324,
                316.549,
                315.808,
                315.101,
                314.425,
                313.779,
                313.162,
                312.573,
                312.011,
                311.473,
                310.96,
                310.469,
                310.35,
                300.002,
                300.401,
                302.811,
                307.106,
                311.845,
                316.27,
                320.155,
                323.483,
                326.305,
                328.688,
                330.696,
                332.386,
                333.809,
                335.007,
                336.014,
                336.863,
                337.576,
                338.177,
                338.682,
                339.108,
                339.466,
                339.767,
                340.02,
                340.234,
                340.413
            ]
        },
        {
            "centre_defect": {
                "centre": 0.35,
                "diffusivity": 1.5e-05,
                "length": 0.25
            },
            "mediumBoundaryTemp": [
                300,
                300.127,
                301.571,
                305.737,
                311.828,
                317.277,
                320.772,
                322.604,
                323.344,
                323.42,
                323.106,
                322.571,
                321.915,
                321.2,
                320.462,
                319.721,
                318.989,
                318.275,
                317.582,
                316.911,
                316.264,
                315.64,
                315.039,
                314.461,
                313.905,
                313.37,
                312.855,
                312.36,
                311.884,
                311.427,
                310.987,
                310.88,
                300,
                300.163,
                301.562,
                304.729,
                308.771,
                312.897,
                316.734,
                320.157,
                323.149,
                325.738,
                327.969,
                329.885,
                331.529,
                332.938,
                334.145,
                335.18,
                336.067,
                336.826,
                337.477,
                338.034,
                338.512,
                338.921,
                339.271,
                339.572,
                339.829
            ]
        },
        {
            "centre_defect": {
                "centre": 0.35,
                "diffusivity": 1.5e-05,
                "length": 0.3
            },
            "mediumBoundaryTemp": [
                300,
                300.04,
                300.681,
                303.017,
                307.15,
                311.704,
                315.346,
                317.792,
                319.253,
                320.006,
                320.277,
                320.229,
                319.972,
                319.584,
                319.113,
                318.595,
                318.051,
                317.498,
                316.943,
                316.395,
                315.857,
                315.33,
                314.818,
                314.321,
                313.838,
                313.371,
                312.919,
                312.482,
                312.059,
                311.65,
                311.255,
                311.159,
                300,
                300.067,
                300.881,
                303.188,
                306.574,
                310.335,
                314.032,
                317.456,
                320.535,
                323.258,
                325.645,
                327.728,
                329.539,
                331.113,
                332.478,
                333.662,
                334.689,
                335.579,
                336.35,
                337.019,
                337.598,
                338.101,
                338.536,
                338.913,
                339.24
            ]
        },
        {
            "centre_defect": {
                "centre": 0.45,
                "diffusivity": 1.5e-05,
                "length": 0.1
            },
            "mediumBoundaryTemp": [
                300.03,
                302.43,
                313.246,
                329.944,
                342.702,
                346.575,
                345.627,
                343.039,
                340.056,
                337.099,
                334.3,
                331.692,
                329.275,
                327.04,
                324.975,
                323.067,
                321.305,
                319.678,
                318.175,
                316.786,
                315.504,
                314.32,
                313.226,
                312.215,
                311.282,
                310.42,
                309.624,
                308.889,
                308.21,
                307.583,
                307.004,
                306.866,
                300.048,
                302.146,
                308.238,
                314.821,
                320.323,
                324.716,
                328.196,
                330.949,
                333.127,
                334.849,
                336.211,
                337.289,
                338.141,
                338.815,
                339.349,
                339.77,
                340.104,
                340.368,
                340.577,
                340.742,
                340.872,
                340.975,
                341.057,
                341.122,
                341.173
            ]
        },
        {
            "centre_defect": {
                "centre": 0.45,
                "diffusivity": 1.5e-05,
                "length": 0.15
            },
            "mediumBoundaryTemp": [
                300.006,
                300.988,
                307.042,
                318.633,
                330.106,
                336.044,
                337.47,
                336.739,
                335.15,
                333.276,
                331.358,
                329.49,
                327.708,
                326.023,
                324.436,
                322.945,
                321.543,
                320.227,
                318.992,
                317.831,
                316.742,
                315.719,
                314.758,
                313.857,
                313.01,
                312.215,
                311.469,
                310.768,
                310.11,
                309.492,
                308.912,
                308.773,
                300.01,
                300.936,
                304.767,
                310.042,
                315.086,
                319.455,
                323.134,
                326.204,
                328.759,
                330.884,
                332.652,
                334.121,
                335.343,
                336.358,
                337.203,
                337.905,
                338.488,
                338.973,
                339.377,
                339.712,
                339.991,
                340.223,
                340.416,
                340.576,
                340.709
            ]
        },
        {
            "centre_defect": {
                "centre": 0.45,
                "diffusivity": 1.5e-05,
                "length": 0.2
            },
            "mediumBoundaryTemp": [
                300.001,
                300.378,
                303.576,
                311.166,
                320.475,
                327.118,
                330.243,
                331.102,
                330.76,
                329.83,
                328.634,
                327.337,
                326.024,
                324.735,
                323.49,
                322.298,
                321.161,
                320.079,
                319.051,
                318.075,
                317.149,
                316.27,
                315.436,
                314.644,
                313.893,
                313.181,
                312.505,
                311.864,
                311.256,
                310.679,
                310.131,
                309.999,
                300.002,
                300.385,
                302.641,
                306.614,
                311.018,
                315.186,
                318.903,
                322.138,
                324.926,
                327.316,
                329.361,
                331.11,
                332.604,
                333.881,
                334.971,
                335.903,
                336.699,
                337.379,
                337.96,
                338.456,
                338.88,
                339.243,
                339.552,
                339.816,
                340.042
            ]
        },
        {
            "centre_defect": {
                "centre": 0.45,
                "diffusivity": 1.5e-05,
                "length": 0.25
            },
            "mediumBoundaryTemp": [
                300,
                300.136,
                301.732,
                306.427,
                313.384,
                319.666,
                323.676,
                325.716,
                326.458,
                326.416,
                325.922,
                325.177,
                324.302,
                323.368,
                322.417,
                321.473,
                320.551,
                319.656,
                318.795,
                317.966,
                317.172,
                316.412,
                315.685,
                314.989,
                314.324,
                313.688,
                313.08,
                312.499,
                311.944,
                311.413,
                310.907,
                310.783,
                300,
                300.15,
                301.408,
                304.242,
                307.908,
                311.725,
                315.349,
                318.644,
                321.575,
                324.154,
                326.409,
                328.375,
                330.084,
                331.57,
                332.861,
                333.982,
                334.956,
                335.801,
                336.535,
                337.172,
                337.725,
                338.205,
                338.622,
                338.984,
                339.298
            ]
        },
        {
            "centre_defect": {
                "centre": 0.45,
                "diffusivity": 1.5e-05,
                "length": 0.3
            },
            "mediumBoundaryTemp": [
                300,
                300.046,
                300.797,
                303.549,
                308.417,
                313.751,
                317.949,
                320.686,
                322.235,
                322.947,
                323.098,
                322.888,
                322.449,
                321.872,
                321.213,
                320.512,
                319.793,
                319.072,
                318.361,
                317.664,
                316.986,
                316.329,
                315.694,
                315.081,
                314.491,
                313.924,
                313.377,
                312.852,
                312.347,
                311.862,
                311.396,
                311.282,
                300,
                300.056,
                300.729,
                302.672,
                305.617,
                309.005,
                312.439,
                315.705,
                318.707,
                321.414,
                323.827,
                325.965,
                327.851,
                329.511,
                330.969,
                332.249,
                333.373,
                334.358,
                335.222,
                335.98,
                336.644,
                337.227,
                337.737,
                338.185,
                338.577
            ]
        },
        {
            "centre_defect": {
                "centre": 0.55,
                "diffusivity": 1.5e-05,
                "length": 0.1
            },
            "mediumBoundaryTemp": [
                300.03,
                302.441,
                313.465,
                330.968,
                345.084,
                350.205,
                349.847,
                347.23,
                343.855,
                340.354,
                336.978,
                333.82,
                330.904,
                328.228,
                325.779,
                323.54,
                321.494,
                319.626,
                317.92,
                316.362,
                314.94,
                313.641,
                312.456,
                311.373,
                310.384,
                309.482,
                308.657,
                307.905,
                307.218,
                306.59,
                306.017,
                305.882,
                300.048,
                302.146,
                308.238,
                314.821,
                320.323,
                324.716,
                328.196,
                330.949,
                333.127,
                334.849,
                336.211,
                337.289,
                338.141,
                338.815,
                339.349,
                339.77,
                340.104,
                340.368,
                340.577,
                340.742,
                340.872,
                340.975,
                341.057,
                341.122,
                341.173
            ]
        },
        {
            "centre_defect": {
                "centre": 0.55,
                "diffusivity": 1.5e-05,
                "length": 0.15
            },
            "mediumBoundaryTemp": [
                300.006,
                300.995,
                307.217,
                319.503,
                332.225,
                339.431,
                341.608,
                341.069,
                339.299,
                337.049,
                334.672,
                332.33,
                330.091,
                327.981,
                326.007,
                324.167,
                322.454,
                320.861,
                319.381,
                318.006,
                316.728,
                315.54,
                314.437,
                313.412,
                312.46,
                311.576,
                310.754,
                309.991,
                309.282,
                308.623,
                308.011,
                307.864,
                300.01,
                300.936,
                304.767,
                310.042,
                315.086,
                319.455,
                323.134,
                326.204,
                328.759,
                330.884,
                332.652,
                334.121,
                335.343,
                336.358,
                337.203,
                337.905,
                338.488,
                338.973,
                339.377,
                339.712,
                339.991,
                340.223,
                340.416,
                340.576,
                340.709
            ]
        },
        {
            "centre_defect": {
                "centre": 0.55,
                "diffusivity": 1.5e-05,
                "length": 0.2
            },
            "mediumBoundaryTemp": [
                300.001,
                300.383,
                303.716,
                311.899,
                322.336,
                330.203,
                334.142,
                335.317,
                334.934,
                333.758,
                332.215,
                330.533,
                328.829,
                327.163,
                325.564,
                324.042,
                322.603,
                321.245,
                319.967,
                318.764,
                317.633,
                316.57,
                315.571,
                314.632,
                313.75,
                312.921,
                312.141,
                311.409,
                310.721,
                310.074,
                309.467,
                309.321,
                300.002,
                300.385,
                302.641,
                306.614,
                311.018,
                315.186,
                318.903,
                322.138,
                324.926,
                327.316,
                329.361,
                331.11,
                332.604,
                333.881,
                334.971,
                335.903,
                336.699,
                337.379,
                337.96,
                338.456,
                338.88,
                339.243,
                339.552,
                339.816,
                340.042
            ]
        },
        {
            "centre_defect": {
                "centre": 0.55,
                "diffusivity": 1.5e-05,
                "length": 0.25
            },
            "mediumBoundaryTemp": [
                300,
                300.14,
                301.842,
                307.044,
                315.018,
                322.472,
                327.334,
                329.776,
                330.573,
                330.376,
                329.614,
                328.549,
                327.338,
                326.071,
                324.799,
                323.554,
                322.349,
                321.193,
                320.09,
                319.039,
                318.041,
                317.094,
                316.196,
                315.344,
                314.537,
                313.772,
                313.047,
                312.36,
                311.71,
                311.093,
                310.509,
                310.368,
                300,
                300.15,
                301.408,
                304.242,
                307.908,
                311.725,
                315.349,
                318.644,
                321.575,
                324.154,
                326.409,
                328.375,
                330.084,
                331.57,
                332.861,
                333.982,
                334.956,
                335.801,
                336.535,
                337.172,
                337.725,
                338.205,
                338.622,
                338.984,
                339.298
            ]
        },
        {
            "centre_defect": {
                "centre": 0.55,
                "diffusivity": 1.5e-05,
                "length": 0.3
            },
            "mediumBoundaryTemp": [
                300,
                300.049,
                300.885,
                304.07,
                309.858,
                316.318,
                321.401,
                324.615,
                326.301,
                326.925,
                326.863,
                326.374,
                325.633,
                324.748,
                323.791,
                322.807,
                321.822,
                320.853,
                319.911,
                319,
                318.125,
                317.285,
                316.482,
                315.714,
                314.981,
                314.281,
                313.614,
                312.977,
                312.37,
                311.792,
                311.24,
                311.106,
                300,
                300.056,
                300.729,
                302.672,
                305.617,
                309.005,
                312.439,
                315.705,
                318.707,
                321.414,
                323.827,
                325.965,
                327.851,
                329.511,
                330.969,
                332.249,
                333.373,
                334.358,
                335.222,
                335.98,
                336.644,
                337.227,
                337.737,
                338.185,
                338.577
            ]
        },
        {
            "centre_defect": {
                "centre": 0.65,
                "diffusivity": 1.5e-05,
                "length": 0.1
            },
            "mediumBoundaryTemp": [
                300.03,
                302.468,
                313.844,
                332.432,
                348.161,
                354.635,
                354.876,
                352.184,
                348.319,
                344.129,
                340.011,
                336.134,
                332.564,
                329.312,
                326.368,
                323.711,
                321.318,
                319.164,
                317.227,
                315.485,
                313.919,
                312.512,
                311.246,
                310.109,
                309.087,
                308.168,
                307.342,
                306.599,
                305.932,
                305.332,
                304.792,
                304.666,
                300.048,
                302.173,
                308.463,
                315.373,
                321.136,
                325.673,
                329.201,
                331.937,
                334.059,
                335.702,
                336.977,
                337.964,
                338.729,
                339.323,
                339.782,
                340.139,
                340.415,
                340.629,
                340.795,
                340.923,
                341.023,
                341.1,
                341.16,
                341.206,
                341.242
            ]
        },
        {
            "centre_defect": {
                "centre": 0.65,
                "diffusivity": 1.5e-05,
                "length": 0.15
            },
            "mediumBoundaryTemp": [
                300.006,
                301.015,
                307.531,
                320.801,
                335.108,
                343.802,
                346.832,
                346.492,
                344.464,
                341.695,
                338.681,
                335.671,
                332.786,
                330.077,
                327.562,
                325.242,
                323.109,
                321.152,
                319.358,
                317.716,
                316.212,
                314.836,
                313.576,
                312.423,
                311.368,
                310.403,
                309.519,
                308.711,
                307.971,
                307.294,
                306.675,
                306.528,
                300.01,
                300.957,
                304.961,
                310.559,
                315.907,
                320.486,
                324.283,
                327.401,
                329.952,
                332.038,
                333.742,
                335.136,
                336.274,
                337.205,
                337.966,
                338.587,
                339.095,
                339.51,
                339.849,
                340.126,
                340.353,
                340.538,
                340.689,
                340.813,
                340.914
            ]
        },
        {
            "centre_defect": {
                "centre": 0.65,
                "diffusivity": 1.5e-05,
                "length": 0.2
            },
            "mediumBoundaryTemp": [
                300.001,
                300.399,
                303.98,
                313.065,
                325.043,
                334.458,
                339.376,
                340.891,
                340.382,
                338.803,
                336.72,
                334.446,
                332.15,
                329.919,
                327.794,
                325.795,
                323.925,
                322.182,
                320.563,
                319.059,
                317.664,
                316.371,
                315.171,
                314.06,
                313.03,
                312.075,
                311.19,
                310.37,
                309.61,
                308.906,
                308.253,
                308.097,
                300.002,
                300.401,
                302.811,
                307.106,
                311.845,
                316.27,
                320.155,
                323.483,
                326.305,
                328.688,
                330.696,
                332.386,
                333.809,
                335.007,
                336.014,
                336.863,
                337.576,
                338.177,
                338.682,
                339.108,
                339.466,
                339.767,
                340.02,
                340.234,
                340.413
            ]
        },
        {
            "centre_defect": {
                "centre": 0.65,
                "diffusivity": 1.5e-05,
                "length": 0.25
            },
            "mediumBoundaryTemp": [
                300,
                300.152,
                302.072,
                308.126,
                317.629,
                326.693,
                332.625,
                335.48,
                336.206,
                335.65,
                334.387,
                332.769,
                331.002,
                329.202,
                327.434,
                325.731,
                324.11,
                322.578,
                321.135,
                319.78,
                318.509,
                317.319,
                316.204,
                315.16,
                314.183,
                313.269,
                312.414,
                311.614,
                310.865,
                310.165,
                309.51,
                309.353,
                300,
                300.163,
                301.562,
                304.729,
                308.771,
                312.897,
                316.734,
                320.157,
                323.149,
                325.738,
                327.969,
                329.885,
                331.529,
                332.938,
                334.145,
                335.18,
                336.067,
                336.826,
                337.477,
                338.034,
                338.512,
                338.921,
                339.271,
                339.572,
                339.829
            ]
        },
        {
            "centre_defect": {
                "centre": 0.65,
                "diffusivity": 1.5e-05,
                "length": 0.3
            },
            "mediumBoundaryTemp": [
                300,
                300.058,
                301.101,
                305.137,
                312.503,
                320.662,
                326.883,
                330.535,
                332.143,
                332.392,
                331.815,
                330.768,
                329.474,
                328.066,
                326.627,
                325.202,
                323.818,
                322.489,
                321.221,
                320.016,
                318.876,
                317.797,
                316.779,
                315.818,
                314.911,
                314.056,
                313.249,
                312.489,
                311.772,
                311.097,
                310.46,
                310.307,
                300,
                300.067,
                300.881,
                303.188,
                306.574,
                310.335,
                314.032,
                317.456,
                320.535,
                323.258,
                325.645,
                327.728,
                329.539,
                331.113,
                332.478,
                333.662,
                334.689,
                335.579,
                336.35,
                337.019,
                337.598,
                338.101,
                338.536,
                338.913,
                339.24
            ]
        }
    ]
}
