t;T1;T2;T3;T4;T5;T6;T7;T8
800;300.048;300.097;300.002;300.01;300.048;300.097;300.002;300.01
1600;302.173;303.293;300.401;300.964;302.144;303.252;300.384;300.925
2400;308.463;311.304;302.811;305.149;308.214;311.007;302.625;304.845
3200;315.373;319.117;307.106;311.113;314.759;318.462;306.562;310.383
4000;321.136;325.127;311.845;316.813;320.229;324.239;310.927;315.734
4800;325.673;329.546;316.27;321.642;324.603;328.575;315.063;320.352
5600;329.201;332.768;320.155;325.578;328.076;331.815;318.759;324.195
6400;331.937;335.112;323.483;328.744;330.829;334.234;321.982;327.352
7200;334.059;336.817;326.305;331.279;333.013;336.041;324.763;329.934
8000;335.702;338.057;328.688;333.307;334.743;337.39;327.152;332.042
8800;336.977;338.959;330.696;334.927;336.116;338.397;329.2;333.761
9600;337.964;339.615;332.386;336.222;337.204;339.149;330.954;335.164
10400;338.729;340.093;333.809;337.256;338.066;339.711;332.456;336.308
11200;339.323;340.44;335.007;338.083;338.75;340.13;333.741;337.241
12000;339.782;340.692;336.014;338.743;339.292;340.443;334.84;338.001
12800;340.139;340.876;336.863;339.27;339.722;340.677;335.782;338.622
13600;340.415;341.01;337.576;339.692;340.062;340.852;336.587;339.128
14400;340.629;341.107;338.177;340.028;340.333;340.982;337.276;339.541
15200;340.795;341.177;338.682;340.297;340.547;341.079;337.866;339.878
16000;340.923;341.229;339.108;340.512;340.716;341.152;338.371;340.152
16800;341.023;341.266;339.466;340.684;340.851;341.206;338.803;340.376
17600;341.1;341.293;339.767;340.821;340.958;341.247;339.173;340.559
18400;341.16;341.313;340.02;340.931;341.042;341.277;339.489;340.707
19200;341.206;341.328;340.234;341.018;341.109;341.299;339.76;340.829
20000;341.242;341.338;340.413;341.088;341.163;341.316;339.992;340.928
