x;T1;T2;T3
0;355.9;347.354;353.524
0.01;355.9;347.354;353.524
0.02;355.896;347.352;353.521
0.03;355.887;347.349;353.514
0.04;355.874;347.343;353.505
0.05;355.857;347.336;353.492
0.06;355.836;347.327;353.475
0.07;355.811;347.317;353.456
0.08;355.781;347.305;353.433
0.09;355.747;347.291;353.407
0.1;355.709;347.275;353.378
0.11;355.666;347.257;353.345
0.12;355.62;347.238;353.309
0.13;355.569;347.217;353.271
0.14;355.514;347.195;353.228
0.15;355.455;347.17;353.183
0.16;355.391;347.144;353.135
0.17;355.324;347.116;353.083
0.18;355.253;347.087;353.028
0.19;355.177;347.056;352.97
0.2;355.097;347.023;352.909
0.21;354.618;346.989;352.845
0.22;354.116;346.953;352.778
0.23;353.593;346.915;352.708
0.24;353.049;346.875;352.635
0.25;352.486;346.834;352.558
0.26;351.904;346.792;352.479
0.27;351.304;346.748;352.397
0.28;350.687;346.702;352.311
0.29;350.055;346.655;352.223
0.3;349.408;346.606;352.132
0.31;348.748;346.555;351.593
0.32;348.075;346.503;351.038
0.33;347.391;346.45;350.469
0.34;346.697;346.395;349.885
0.35;345.994;346.339;349.288
0.36;345.283;346.281;348.679
0.37;344.565;346.221;348.059
0.38;343.843;346.161;347.429
0.39;343.116;346.098;346.789
0.4;342.386;346.035;346.141
0.41;341.654;345.97;345.485
0.42;340.922;345.904;344.823
0.43;340.19;345.836;344.156
0.44;339.461;345.767;343.485
0.45;338.735;345.697;342.81
0.46;338.013;345.626;342.133
0.47;337.297;345.553;341.455
0.48;336.587;345.479;340.777
0.49;335.886;345.404;340.1
0.5;335.194;345.328;339.424
0.51;335.075;344.883;338.752
0.52;334.958;344.433;338.084
0.53;334.843;343.978;337.42
0.54;334.729;343.518;336.763
0.55;334.618;343.055;336.113
0.56;334.509;342.589;335.471
0.57;334.401;342.12;334.838
0.58;334.296;341.651;334.215
0.59;334.193;341.181;333.603
0.6;334.092;340.711;333.003
0.61;333.993;340.243;332.901
0.62;333.896;339.776;332.801
0.63;333.802;339.312;332.703
0.64;333.709;338.851;332.607
0.65;333.619;338.395;332.514
0.66;333.531;337.944;332.423
0.67;333.446;337.498;332.335
0.68;333.362;337.059;332.249
0.69;333.281;336.628;332.166
0.7;333.203;336.204;332.084
0.71;333.127;335.789;332.006
0.72;333.053;335.383;331.93
0.73;332.982;334.987;331.856
0.74;332.913;334.602;331.785
0.75;332.847;334.229;331.717
0.76;332.783;333.867;331.651
0.77;332.721;333.518;331.588
0.78;332.663;333.182;331.528
0.790000000000001;332.606;332.86;331.47
0.8;332.553;332.553;331.414
0.810000000000001;332.502;332.502;331.362
0.82;332.453;332.453;331.312
0.83;332.407;332.407;331.265
0.84;332.364;332.364;331.22
0.850000000000001;332.323;332.323;331.178
0.860000000000001;332.285;332.285;331.139
0.87;332.25;332.25;331.103
0.88;332.218;332.218;331.07
0.890000000000001;332.188;332.188;331.039
0.900000000000001;332.16;332.16;331.011
0.910000000000001;332.136;332.136;330.985
0.92;332.114;332.114;330.963
0.930000000000001;332.095;332.095;330.943
0.940000000000001;332.079;332.079;330.927
0.950000000000001;332.065;332.065;330.912
0.960000000000001;332.054;332.054;330.901
0.970000000000001;332.046;332.046;330.893
0.980000000000001;332.04;332.04;330.887
0.990000000000001;332.038;332.038;330.884
1;332.038;332.038;330.884
